{
  "extends": "@vue/tsconfig/tsconfig.web.json",
  "include": ["env.d.ts", "src/**/*", "src/**/*.vue"],
  "compilerOptions": {
    "baseUrl": ".",
    "paths": {
      "@/*": ["./src/*"]
    },
    "declaration": true,
    "emitDeclarationOnly": true,
    "declarationDir": "./dist/types"
  },

  "references": [
    {
      "path": "./tsconfig.config.json"
    }
  ]
}
